<svg xmlns="http://www.w3.org/2000/svg" width="29.999" height="21" viewBox="0 0 29.999 21">
    <defs>
        <style>
            .cls-1{fill:#45b2e8}.cls-2{fill:#fcd669}
        </style>
    </defs>
    <g id="Layer_2" data-name="Layer 2" transform="translate(-444 -135)">
        <g id="Layer_1" data-name="Layer 1" transform="translate(444 135)">
            <path id="Path_301" d="M446.85 135a2.844 2.844 0 0 0-2.85 2.854v8.574h30v-8.574a2.86 2.86 0 0 0-2.85-2.854z" class="cls-1" data-name="Path 301" transform="translate(-444 -135)"/>
            <path id="Rectangle-295" d="M444 143v7.134a2.866 2.866 0 0 0 2.85 2.866h24.3a2.847 2.847 0 0 0 2.85-2.866V143z" class="cls-2" transform="translate(-444 -132)"/>
        </g>
    </g>
</svg>
